{
	"instanceName": "cargo-marketplace.dev-channel",
	"serviceKey": {
		"type": "oAuthBearerToken",
		"clientId":"sb-f4741b55-44bd-407e-9dfd-a879b2f20c61!b1039|na-3a01f1e2-bc33-4e12-86a2-ffffaea79918!b33",
		"clientSecret":"m6FCZULlaYs7Rpd0YPSIsQSZEt4=",
		"tokenUrl":"https://pdl.authentication.us10.hana.ondemand.com/oauth/token"
	},
	"serviceURL": "https://hyperledger-fabric.cfapps.us10.hana.ondemand.com/api/v1/chaincodes/",
	"entityCollection": [
{
  "name":"availabilityAsset",
  "chaincodeId": "2bf2c006-4cf6-4b59-a25c-04646cc6d37b-com-sap-hlfaas-cargo-net-availabilityAsset",
  "chaincodeVersion": "/latest",
  "methods": [{
    "name": "addNewAvailabilityAsset",
    "type":"addNew",
    "path": "/",
    "httpMethod":"POST",
    "successMessage": "Creation of new AvailabilityAsset successful"
  }, {
    "name": "readAllAvailabilityAssets",
    "type":"readAll",
    "path": "/",
    "httpMethod":"GET",
    "successMessage": "Retrieval of all AvailabilityAssets successful"
  },{
    "name": "readAvailabilityAsset",
    "type":"read",
    "path": "/{id}",
    "httpMethod":"GET",
    "successMessage": "Read AvailabilityAsset successful"
  },{
    "name": "removeAvailabilityAsset",
    "type":"remove",
    "path": "/{id}",
    "httpMethod":"DELETE",
    "successMessage": "Removal of AvailabilityAsset successful"
  },{
    "name": "removeAllAvailabilityAssets",
    "type":"removeAll",
    "path": "/clear",
    "httpMethod":"DELETE",
    "successMessage": "Removal of all AvailabilityAssets successful"
  }]
}
,
   {
  "name":"bookingAsset",
  "chaincodeId": "2bf2c006-4cf6-4b59-a25c-04646cc6d37b-com-sap-hlfaas-cargo-net-bookingAsset",
  "chaincodeVersion": "/latest",
  "methods": [{
    "name": "addNewBookingAsset",
    "type":"addNew",
    "path": "/",
    "httpMethod":"POST",
    "successMessage": "Creation of new BookingAsset successful"
  }, {
    "name": "readAllBookingAssets",
    "type":"readAll",
    "path": "/",
    "httpMethod":"GET",
    "successMessage": "Retrieval of all BookingAssets successful"
  },{
    "name": "readBookingAsset",
    "type":"read",
    "path": "/{id}",
    "httpMethod":"GET",
    "successMessage": "Read BookingAsset successful"
  },{
    "name": "removeBookingAsset",
    "type":"remove",
    "path": "/{id}",
    "httpMethod":"DELETE",
    "successMessage": "Removal of BookingAsset successful"
  },{
    "name": "removeAllBookingAssets",
    "type":"removeAll",
    "path": "/clear",
    "httpMethod":"DELETE",
    "successMessage": "Removal of all BookingAssets successful"
  }]
}
,
   {
  "name":"acceptanceAsset",
  "chaincodeId": "2bf2c006-4cf6-4b59-a25c-04646cc6d37b-com-sap-hlfaas-cargo-net-acceptanceAsset",
  "chaincodeVersion": "/latest",
  "methods": [{
    "name": "addNewAcceptanceAsset",
    "type":"addNew",
    "path": "/",
    "httpMethod":"POST",
    "successMessage": "Creation of new AcceptanceAsset successful"
  }, {
    "name": "readAllAcceptanceAssets",
    "type":"readAll",
    "path": "/",
    "httpMethod":"GET",
    "successMessage": "Retrieval of all AcceptanceAssets successful"
  },{
    "name": "readAcceptanceAsset",
    "type":"read",
    "path": "/{id}",
    "httpMethod":"GET",
    "successMessage": "Read AcceptanceAsset successful"
  },{
    "name": "removeAcceptanceAsset",
    "type":"remove",
    "path": "/{id}",
    "httpMethod":"DELETE",
    "successMessage": "Removal of AcceptanceAsset successful"
  },{
    "name": "removeAllAcceptanceAssets",
    "type":"removeAll",
    "path": "/clear",
    "httpMethod":"DELETE",
    "successMessage": "Removal of all AcceptanceAssets successful"
  }]
}
]
}
