{
  "instanceName": "prod.dairy-channel",
  "serviceKey": {
    "type": "oAuthBearerToken",
    "clientId": "sb-09be9632-24f6-430d-8c42-e4c3171b8ca1!b1039|na-3a01f1e2-bc33-4e12-86a2-ffffaea79918!b33",
    "clientSecret": "mM1hNjiajUDcgN00/Oru+zQd6hY=",
    "tokenUrl": "https://pdl.authentication.us10.hana.ondemand.com/oauth/token"
  },
  "serviceURL": "https://hyperledger-fabric.cfapps.us10.hana.ondemand.com/api/v1/chaincodes/",
  "entityCollection": [
    {
      "name": "dockets",
      "chaincodeId": "b11946ed-5fa2-482d-9a1e-249816b5b754-com-sap-baashlf-dts-net-dockets",
      "chaincodeVersion": "/latest",
      "methods": [
        {
          "name": "addNewDocket",
          "type": "addNew",
          "path": "/",
          "httpMethod": "POST",
          "successMessage": "Creation of new Docket successful"
        },
        {
          "name": "readAllDockets",
          "type": "readAll",
          "path": "/",
          "httpMethod": "GET",
          "successMessage": "Retrieval of all Dockets successful"
        },
        {
          "name": "readDocket",
          "type": "read",
          "path": "/{id}",
          "httpMethod": "GET",
          "successMessage": "Read Docket successful"
        },
        {
          "name": "addNewIntake",
          "type": "addNewIntake",
          "path": "/{id}",
          "httpMethod": "POST",
          "successMessage": "Addition of Intake successful"
        },
        {
          "name": "removeAllDockets",
          "type": "removeAll",
          "path": "/",
          "httpMethod": "DELETE",
          "successMessage": "Removal of all Dockets successful"
        }
      ]
    }
  ]
}
