{
  "instanceName": "indiplat.demo-channel",
  "serviceKey": {
    "type": "oAuthBearerToken",
    "clientId": "sb-1e05d6af-e81e-4f68-a90e-05b903fb6d31!b5729|na-420adfc9-f96e-4090-a650-0386988b67e0!b1836",
    "clientSecret": "FWagIKBKRBThIj2XEdSFGliPeEU=",
    "tokenUrl": "https://hyundaicard.authentication.eu10.hana.ondemand.com/oauth/token"
  },
  "serviceURL": "https://hyperledger-fabric.cfapps.us10.hana.ondemand.com/api/v1/chaincodes/",
  "entityCollection": [
    {
      "name": "financer",
      "chaincodeId": "49ecbec2-0a0a-4ea7-ab78-98d8e4d0244d-com-sap-baashlf-indiplat-financier",
      "chaincodeVersion": "/latest",
      "methods": [
        {
          "name": "addNewFinancier",
          "type": "addNew",
          "path": "/",
          "httpMethod": "POST",
          "successMessage": "Creation of new Financier successful"
        },
        {
          "name": "readAllFinanciers",
          "type": "readAll",
          "path": "/",
          "httpMethod": "GET",
          "successMessage": "Retrieval of all Financiers successful"
        },
        {
          "name": "readFinancier",
          "type": "read",
          "path": "/{id}",
          "httpMethod": "GET",
          "successMessage": "Read Financier successful"
        },
        {
          "name": "removeFinancier",
          "type": "remove",
          "path": "/{id}",
          "httpMethod": "DELETE",
          "successMessage": "Removal of Financier successful"
        },
        {
          "name": "removeAllFinanciers",
          "type": "removeAll",
          "path": "/clear",
          "httpMethod": "DELETE",
          "successMessage": "Removal of all Financiers successful"
        }
      ]
    },
    {
      "name": "purchaser",
      "chaincodeId": "49ecbec2-0a0a-4ea7-ab78-98d8e4d0244d-com-sap-baashlf-indiplat-purchaser",
      "chaincodeVersion": "/latest",
      "methods": [
        {
          "name": "addNewPurchaser",
          "type": "addNew",
          "path": "/",
          "httpMethod": "POST",
          "successMessage": "Creation of new Purchaser successful"
        },
        {
          "name": "readAllPurchasers",
          "type": "readAll",
          "path": "/",
          "httpMethod": "GET",
          "successMessage": "Retrieval of all Purchasers successful"
        },
        {
          "name": "readPurchaser",
          "type": "read",
          "path": "/{id}",
          "httpMethod": "GET",
          "successMessage": "Read Purchaser successful"
        },
        {
          "name": "removePurchaser",
          "type": "remove",
          "path": "/{id}",
          "httpMethod": "DELETE",
          "successMessage": "Removal of Purchaser successful"
        },
        {
          "name": "removeAllPurchasers",
          "type": "removeAll",
          "path": "/clear",
          "httpMethod": "DELETE",
          "successMessage": "Removal of all Purchasers successful"
        }
      ]
    },
    {
      "name": "supplier",
      "chaincodeId": "49ecbec2-0a0a-4ea7-ab78-98d8e4d0244d-com-sap-baashlf-indiplat-supplier",
      "chaincodeVersion": "/latest",
      "methods": [
        {
          "name": "addNewSupplier",
          "type": "addNew",
          "path": "/",
          "httpMethod": "POST",
          "successMessage": "Creation of new Supplier successful"
        },
        {
          "name": "readAllSuppliers",
          "type": "readAll",
          "path": "/",
          "httpMethod": "GET",
          "successMessage": "Retrieval of all Suppliers successful"
        },
        {
          "name": "readSupplier",
          "type": "read",
          "path": "/{id}",
          "httpMethod": "GET",
          "successMessage": "Read Supplier successful"
        },
        {
          "name": "removeSupplier",
          "type": "remove",
          "path": "/{id}",
          "httpMethod": "DELETE",
          "successMessage": "Removal of Supplier successful"
        },
        {
          "name": "removeAllSuppliers",
          "type": "removeAll",
          "path": "/clear",
          "httpMethod": "DELETE",
          "successMessage": "Removal of all Suppliers successful"
        }
      ]
    },
    {
      "name": "invoice",
      "chaincodeId": "49ecbec2-0a0a-4ea7-ab78-98d8e4d0244d-com-sap-baashlf-indiplat-invoice",
      "chaincodeVersion": "/latest",
      "methods": [
        {
          "name": "addNewInvoice",
          "type": "addNew",
          "path": "/",
          "httpMethod": "POST",
          "successMessage": "Creation of new Invoice successful"
        },
        {
          "name": "readAllInvoices",
          "type": "readAll",
          "path": "/",
          "httpMethod": "GET",
          "successMessage": "Retrieval of all Invoices successful"
        },
        {
          "name": "readInvoice",
          "type": "read",
          "path": "/{id}",
          "httpMethod": "GET",
          "successMessage": "Read Invoice successful"
        },
        {
          "name": "removeInvoice",
          "type": "removeInvoice",
          "path": "/{id}",
          "httpMethod": "DELETE",
          "successMessage": "Removal of Invoice successful"
        },
        {
          "name": "removeAllInvoices",
          "type": "removeInvoice",
          "path": "/clear",
          "httpMethod": "DELETE",
          "successMessage": "Removal of all Invoices successful"
        },
        {
          "name": "requestFinancing",
          "type": "requested",
          "path": "/{id}/{financierID}/requestFinancing",
          "httpMethod": "POST",
          "successMessage": "Request Financing for Invoice successful"
        },
        {
          "name": "offerFinancing",
          "type": "offered",
          "path": "/{id}/offerFinancing",
          "httpMethod": "POST",
          "successMessage": "Financing Offer for Invoice successful"
        },
        {
          "name": "acceptFinancing",
          "type": "accepted",
          "path": "/{id}/acceptFinancing",
          "httpMethod": "POST",
          "successMessage": "Acceptance of Finaning Offer for Invoice successful"
        },
        {
          "name": "completeFinancing",
          "type": "completed",
          "path": "/{id}/completeFinancing",
          "httpMethod": "POST",
          "successMessage": "Completion of Financing for Invoice successful"
        }
      ]
    },
    {
      "name": "purchaseOrder",
      "chaincodeId": "49ecbec2-0a0a-4ea7-ab78-98d8e4d0244d-com-sap-baashlf-indiplat-purchaseOrder",
      "chaincodeVersion": "/latest",
      "methods": [
        {
          "name": "addNewPurchaseOrder",
          "type": "addNew",
          "path": "/",
          "httpMethod": "POST",
          "successMessage": "Creation of new PurchaseOrder successful"
        },
        {
          "name": "readAllPurchaseOrders",
          "type": "readAll",
          "path": "/",
          "httpMethod": "GET",
          "successMessage": "Retrieval of all PurchaseOrders successful"
        },
        {
          "name": "readPurchaseOrder",
          "type": "read",
          "path": "/{id}",
          "httpMethod": "GET",
          "successMessage": "Read PurchaseOrder successful"
        },
        {
          "name": "removePurchaseOrder",
          "type": "remove",
          "path": "/{id}",
          "httpMethod": "DELETE",
          "successMessage": "Removal of PurchaseOrder successful"
        },
        {
          "name": "removeAllPurchaseOrders",
          "type": "removeAll",
          "path": "/clear",
          "httpMethod": "DELETE",
          "successMessage": "Removal of all PurchaseOrders successful"
        },
        {
          "name": "setPurchaseOrderPaid",
          "type": "setPurchaseOrderPaid",
          "path": "/{id}/pay",
          "httpMethod": "POST",
          "successMessage": "Set Payment Status of PurchaseOrder successful"
        }
      ]
    },
    {
      "name": "interestRate",
      "chaincodeId": "49ecbec2-0a0a-4ea7-ab78-98d8e4d0244d-com-sap-baashlf-indiplat-interestRate",
      "chaincodeVersion": "/latest",
      "methods": [
        {
          "name": "addNewInterestRate",
          "type": "addNew",
          "path": "/",
          "httpMethod": "POST",
          "successMessage": "Creation of new InterestRate successful"
        },
        {
          "name": "readAllInterestRates",
          "type": "readAll",
          "path": "/",
          "httpMethod": "GET",
          "successMessage": "Retrieval of all InterestRate successful"
        },
        {
          "name": "readInterestRate",
          "type": "read",
          "path": "/{id}",
          "httpMethod": "GET",
          "successMessage": "Read InterestRate successful"
        },
        {
          "name": "removeInterestRate",
          "type": "remove",
          "path": "/{id}",
          "httpMethod": "DELETE",
          "successMessage": "Removal of InterestRate successful"
        },
        {
          "name": "removeAllInterestRates",
          "type": "removeAll",
          "path": "/clear",
          "httpMethod": "DELETE",
          "successMessage": "Removal of all InterestRates successful"
        },
        {
          "name": "updateInterestRate",
          "type": "update",
          "path": "/update",
          "httpMethod": "POST",
          "successMessage": "Update of InterestRate successful"
        }
      ]
    },
    {
      "name": "financingRequest",
      "chaincodeId": "49ecbec2-0a0a-4ea7-ab78-98d8e4d0244d-com-sap-baashlf-indiplat-financingRequest",
      "chaincodeVersion": "/latest",
      "methods": [
        {
          "name": "addNewFinancingRequest",
          "type": "addNew",
          "path": "/",
          "httpMethod": "POST",
          "successMessage": "Creation of new FinancingRequest successful"
        },
        {
          "name": "readAllFinancingRequests",
          "type": "readAll",
          "path": "/",
          "httpMethod": "GET",
          "successMessage": "Retrieval of all FinancingRequests successful"
        },
        {
          "name": "readFinancingRequest",
          "type": "read",
          "path": "/{id}",
          "httpMethod": "GET",
          "successMessage": "Read FinancingRequest successful"
        },
        {
          "name": "removeFinancingRequest",
          "type": "remove",
          "path": "/{id}",
          "httpMethod": "DELETE",
          "successMessage": "Removal of FinancingRequest successful"
        },
        {
          "name": "removeAllFinancingRequests",
          "type": "removeAll",
          "path": "/clear",
          "httpMethod": "DELETE",
          "successMessage": "Removal of all FinancingRequests successful"
        },
        {
          "name": "setFinancingRequestAccepted",
          "type": "accept",
          "path": "/accept",
          "httpMethod": "POST",
          "successMessage": "Acceptance of FinancingRequest successful"
        },
        {
          "name": "setFinancingRequestDeclined",
          "type": "declined",
          "path": "/{id}/decline",
          "httpMethod": "POST",
          "successMessage": "Rejection of FinancingRequest successful"
        },
        {
          "name": "setFinancingRequestInProcess",
          "type": "process",
          "path": "/process",
          "httpMethod": "POST",
          "successMessage": "Set in process of FinancingRequest successful"
        },
        {
          "name": "setFinancingRequestDocumentsChecked",
          "type": "check",
          "path": "/{id}/checkDocuments",
          "httpMethod": "POST",
          "successMessage": "Document Check of FinancingRequest successful"
        },
        {
          "name": "setFinancingRequestDocumentsVerified",
          "type": "verify",
          "path": "/{id}/verifyDocuments",
          "httpMethod": "POST",
          "successMessage": "Document Verification of FinancingRequest successful"
        }
      ]
    },
		{
      "name": "financingOffer",
      "chaincodeId": "49ecbec2-0a0a-4ea7-ab78-98d8e4d0244d-com-sap-baashlf-indiplat-financingOffer",
      "chaincodeVersion": "/latest",
      "methods": [
        {
          "name": "addNewFinancingOffer",
          "type": "addNew",
          "path": "/",
          "httpMethod": "POST",
          "successMessage": "Creation of new FinancingOffer successful"
        },
        {
          "name": "readAllFinancingOffers",
          "type": "readAll",
          "path": "/",
          "httpMethod": "GET",
          "successMessage": "Retrieval of all FinancingOffers successful"
        },
        {
          "name": "readFinancingOffer",
          "type": "read",
          "path": "/{id}",
          "httpMethod": "GET",
          "successMessage": "Read FinancingOffer successful"
        },
        {
          "name": "removeFinancingOffer",
          "type": "remove",
          "path": "/{id}",
          "httpMethod": "DELETE",
          "successMessage": "Removal of FinancingOffer successful"
        },
        {
          "name": "setFinancingOfferSubmitted",
          "type": "submit",
          "path": "/submit",
          "httpMethod": "POST",
          "successMessage": "Submission of FinancingOffer successful"
        },
        {
          "name": "setFinancingOfferAccepted",
          "type": "accept",
          "path": "/{id}/accept",
          "httpMethod": "POST",
          "successMessage": "Acceptance of FinancingOffer successful"
        },
        {
          "name": "setFinancingOfferDeclined",
          "type": "decline",
          "path": "/{id}/decline",
          "httpMethod": "POST",
          "successMessage": "Rejection of FinancingOffer successful"
        },
        {
          "name": "setFinancingOfferDisbursementInitiated",
          "type": "disburse",
          "path": "/initiateDisbursement",
          "httpMethod": "POST",
          "successMessage": "Initiation of Disbursement of FinancingOffer successful"
        }
      ]
    }
  ]
}
