{
  "type": "hyperledger-fabric",
  "channelId": "dev49ecbec2-0a0a-4ea7-ab78-98d8e4d0244ddemo-channel",
  "serviceUrl": "https://hyperledger-fabric.cfapps.eu10.hana.ondemand.com/api/v1",
  "documentationUrl": "https://help.sap.com/viewer/p/HYPERLEDGER_FABRIC",
  "oAuth": {
    "clientId": "sb-1e05d6af-e81e-4f68-a90e-05b903fb6d31!b5729|na-420adfc9-f96e-4090-a650-0386988b67e0!b1836",
    "clientSecret": "FWagIKBKRBThIj2XEdSFGliPeEU=",
    "url": "https://hyundaicard.authentication.eu10.hana.ondemand.com",
    "identityZone": "hyundaicard"
  }
}
