{
  "instanceName": "prod.palm-channel",
  "serviceKey": {
    "type": "oAuthBearerToken",
    "clientId": "sb-3d9ec29f-c424-4f65-a2b7-900ef3e14181!b1039|na-3a01f1e2-bc33-4e12-86a2-ffffaea79918!b33",
    "clientSecret": "d0GmnIYLtWVR6FJxX0SBb/FMtLU=",
    "tokenUrl": "https://pdl.authentication.us10.hana.ondemand.com/oauth/token"
  },
  "serviceURL": "https://hyperledger-fabric.cfapps.us10.hana.ondemand.com/api/v1/chaincodes/",
  "entityCollection": [
    {
      "name": "administratorParticipant",
      "chaincodeId": "b11946ed-5fa2-482d-9a1e-249816b5b754-com-sap-hlfaas-palm-net-administratorParticipant",
      "chaincodeVersion": "/latest",
      "methods": [
        {
          "name": "addNewAdministratorParticipant",
          "type": "addNew",
          "path": "/",
          "httpMethod": "POST",
          "successMessage": "Creation of new AdministratorParticipant successful"
        },
        {
          "name": "readAllAdministratorParticipants",
          "type": "readAll",
          "path": "/",
          "httpMethod": "GET",
          "successMessage": "Retrieval of all AdministratorParticipants successful"
        },
        {
          "name": "readAdministratorParticipant",
          "type": "read",
          "path": "/{id}",
          "httpMethod": "GET",
          "successMessage": "Read AdministratorParticipant successful"
        },
        {
          "name": "removeAdministratorParticipant",
          "type": "remove",
          "path": "/{id}",
          "httpMethod": "DELETE",
          "successMessage": "Removal of AdministratorParticipant successful"
        },
        {
          "name": "removeAllAdministratorParticipants",
          "type": "removeAll",
          "path": "/clear",
          "httpMethod": "DELETE",
          "successMessage": "Removal of all AdministratorParticipants successful"
        }
      ]
    },
    {
      "name": "batchAsset",
      "chaincodeId": "b11946ed-5fa2-482d-9a1e-249816b5b754-com-sap-hlfaas-palm-net-batchAsset",
      "chaincodeVersion": "/latest",
      "methods": [
        {
          "name": "addNewBatchAsset",
          "type": "addNew",
          "path": "/",
          "httpMethod": "POST",
          "successMessage": "Creation of new BatchAsset successful"
        },
        {
          "name": "readAllBatchAssets",
          "type": "readAll",
          "path": "/",
          "httpMethod": "GET",
          "successMessage": "Retrieval of all BatchAssets successful"
        },
        {
          "name": "readBatchAsset",
          "type": "read",
          "path": "/{id}",
          "httpMethod": "GET",
          "successMessage": "Read BatchAsset successful"
        },
        {
          "name": "removeBatchAsset",
          "type": "remove",
          "path": "/{id}",
          "httpMethod": "DELETE",
          "successMessage": "Removal of BatchAsset successful"
        },
        {
          "name": "removeAllBatchAssets",
          "type": "removeAll",
          "path": "/clear",
          "httpMethod": "DELETE",
          "successMessage": "Removal of all BatchAssets successful"
        }
      ]
    },
    {
      "name": "certificateAsset",
      "chaincodeId": "b11946ed-5fa2-482d-9a1e-249816b5b754-com-sap-hlfaas-palm-net-certificateAsset",
      "chaincodeVersion": "/latest",
      "methods": [
        {
          "name": "addNewCertificateAsset",
          "type": "addNew",
          "path": "/",
          "httpMethod": "POST",
          "successMessage": "Creation of new CertificateAsset successful"
        },
        {
          "name": "readAllCertificateAssets",
          "type": "readAll",
          "path": "/",
          "httpMethod": "GET",
          "successMessage": "Retrieval of all CertificateAssets successful"
        },
        {
          "name": "readCertificateAsset",
          "type": "read",
          "path": "/{id}",
          "httpMethod": "GET",
          "successMessage": "Read CertificateAsset successful"
        },
        {
          "name": "removeCertificateAsset",
          "type": "remove",
          "path": "/{id}",
          "httpMethod": "DELETE",
          "successMessage": "Removal of CertificateAsset successful"
        },
        {
          "name": "removeAllCertificateAssets",
          "type": "removeAll",
          "path": "/clear",
          "httpMethod": "DELETE",
          "successMessage": "Removal of all CertificateAssets successful"
        }
      ]
    },
    {
      "name": "certificationAuthorityParticipant",
      "chaincodeId": "b11946ed-5fa2-482d-9a1e-249816b5b754-com-sap-hlfaas-palm-net-certificationAuthorityParticipant",
      "chaincodeVersion": "/latest",
      "methods": [
        {
          "name": "addNewCertificationAuthorityParticipant",
          "type": "addNew",
          "path": "/",
          "httpMethod": "POST",
          "successMessage": "Creation of new CertificationAuthorityParticipant successful"
        },
        {
          "name": "readAllCertificationAuthorityParticipants",
          "type": "readAll",
          "path": "/",
          "httpMethod": "GET",
          "successMessage": "Retrieval of all CertificationAuthorityParticipants successful"
        },
        {
          "name": "readCertificationAuthorityParticipant",
          "type": "read",
          "path": "/{id}",
          "httpMethod": "GET",
          "successMessage": "Read CertificationAuthorityParticipant successful"
        },
        {
          "name": "removeCertificationAuthorityParticipant",
          "type": "remove",
          "path": "/{id}",
          "httpMethod": "DELETE",
          "successMessage": "Removal of CertificationAuthorityParticipant successful"
        },
        {
          "name": "removeAllCertificationAuthorityParticipants",
          "type": "removeAll",
          "path": "/clear",
          "httpMethod": "DELETE",
          "successMessage": "Removal of all CertificationAuthorityParticipants successful"
        }
      ]
    },
    {
      "name": "certificationRequestAsset",
      "chaincodeId": "b11946ed-5fa2-482d-9a1e-249816b5b754-com-sap-hlfaas-palm-net-certificationRequestAsset",
      "chaincodeVersion": "/latest",
      "methods": [
        {
          "name": "addNewCeritificationRequestAsset",
          "type": "addNew",
          "path": "/",
          "httpMethod": "POST",
          "successMessage": "Creation of new CeritificationRequestAsset successful"
        },
        {
          "name": "readAllCeritificationRequestAssets",
          "type": "readAll",
          "path": "/",
          "httpMethod": "GET",
          "successMessage": "Retrieval of all CeritificationRequestAssets successful"
        },
        {
          "name": "readCeritificationRequestAsset",
          "type": "read",
          "path": "/{id}",
          "httpMethod": "GET",
          "successMessage": "Read CeritificationRequestAsset successful"
        },
        {
          "name": "removeCeritificationRequestAsset",
          "type": "remove",
          "path": "/{id}",
          "httpMethod": "DELETE",
          "successMessage": "Removal of CeritificationRequestAsset successful"
        },
        {
          "name": "removeAllCeritificationRequestAssets",
          "type": "removeAll",
          "path": "/clear",
          "httpMethod": "DELETE",
          "successMessage": "Removal of all CeritificationRequestAssets successful"
        }
      ]
    },
    {
      "name": "companyParticipant",
      "chaincodeId": "b11946ed-5fa2-482d-9a1e-249816b5b754-com-sap-hlfaas-palm-net-companyParticipant",
      "chaincodeVersion": "/latest",
      "methods": [
        {
          "name": "addNewCompanyParticipant",
          "type": "addNew",
          "path": "/",
          "httpMethod": "POST",
          "successMessage": "Creation of new CompanyParticipant successful"
        },
        {
          "name": "readAllCompanyParticipants",
          "type": "readAll",
          "path": "/",
          "httpMethod": "GET",
          "successMessage": "Retrieval of all CompanyParticipants successful"
        },
        {
          "name": "readCompanyParticipant",
          "type": "read",
          "path": "/{id}",
          "httpMethod": "GET",
          "successMessage": "Read CompanyParticipant successful"
        },
        {
          "name": "removeCompanyParticipant",
          "type": "remove",
          "path": "/{id}",
          "httpMethod": "DELETE",
          "successMessage": "Removal of CompanyParticipant successful"
        },
        {
          "name": "removeAllCompanyParticipants",
          "type": "removeAll",
          "path": "/clear",
          "httpMethod": "DELETE",
          "successMessage": "Removal of all CompanyParticipants successful"
        }
      ]
    },
    {
      "name": "touchAsset",
      "chaincodeId": "b11946ed-5fa2-482d-9a1e-249816b5b754-com-sap-hlfaas-palm-net-touchAsset",
      "chaincodeVersion": "/latest",
      "methods": [
        {
          "name": "addNewTouchAsset",
          "type": "addNew",
          "path": "/",
          "httpMethod": "POST",
          "successMessage": "Creation of new TouchAsset successful"
        },
        {
          "name": "readAllTouchAssets",
          "type": "readAll",
          "path": "/",
          "httpMethod": "GET",
          "successMessage": "Retrieval of all TouchAssets successful"
        },
        {
          "name": "readTouchAsset",
          "type": "read",
          "path": "/{id}",
          "httpMethod": "GET",
          "successMessage": "Read TouchAsset successful"
        },
        {
          "name": "removeTouchAsset",
          "type": "remove",
          "path": "/{id}",
          "httpMethod": "DELETE",
          "successMessage": "Removal of TouchAsset successful"
        },
        {
          "name": "removeAllTouchAssets",
          "type": "removeAll",
          "path": "/clear",
          "httpMethod": "DELETE",
          "successMessage": "Removal of all TouchAssets successful"
        }
      ]
    }
  ]
}
