{
  "type": "hyperledger-fabric",
  "channelId": "devb11946ed-5fa2-482d-9a1e-249816b5b754palm-channel",
  "serviceUrl": "https://hyperledger-fabric.cfapps.us10.hana.ondemand.com/api/v1",
  "documentationUrl": "https://help.sap.com/viewer/p/HYPERLEDGER_FABRIC",
  "oAuth": {
    "clientId": "sb-3d9ec29f-c424-4f65-a2b7-900ef3e14181!b1039|na-3a01f1e2-bc33-4e12-86a2-ffffaea79918!b33",
    "clientSecret": "d0GmnIYLtWVR6FJxX0SBb/FMtLU=",
    "url": "https://pdl.authentication.us10.hana.ondemand.com",
    "identityZone": "pdl"
  }
}
