{
  "type": "hyperledger-fabric",
  "channelId": "devb11946ed-5fa2-482d-9a1e-249816b5b754tuna-channel",
  "serviceUrl": "https://hyperledger-fabric.cfapps.us10.hana.ondemand.com/api/v1",
  "documentationUrl": "https://help.sap.com/viewer/p/HYPERLEDGER_FABRIC",
  "oAuth": {
    "clientId": "sb-56977492-d527-4f18-9f0c-3a7519daa3d7!b1039|na-3a01f1e2-bc33-4e12-86a2-ffffaea79918!b33",
    "clientSecret": "Qq1rZUyXfnji6ROebNxNpGBJ/C4=",
    "url": "https://pdl.authentication.us10.hana.ondemand.com",
    "identityZone": "pdl"
  }
}
