{
  "type": "hyperledger-fabric",
  "channelId": "devb11946ed-5fa2-482d-9a1e-249816b5b754indiplat-channel",
  "serviceUrl": "https://hyperledger-fabric.cfapps.us10.hana.ondemand.com/api/v1",
  "documentationUrl": "https://help.sap.com/viewer/p/HYPERLEDGER_FABRIC",
  "oAuth": {
    "clientId": "sb-3d553bf5-1693-462c-9acf-3d36ffbb76f6!b1039|na-3a01f1e2-bc33-4e12-86a2-ffffaea79918!b33",
    "clientSecret": "8Luz8+gbyMXjHZ4feS/o27NG/WQ=",
    "url": "https://pdl.authentication.us10.hana.ondemand.com",
    "identityZone": "pdl"
  }
}
